TESL_Tests/automate.vcd
$date
Thu Jun 05 11:24:12 CEST 2014
$end
$version
Generated by TESL lang 1.1.3 using TESL engine 1.0.8
$end
$timescale 1 us $end
$comment
Generated from file "/Users/boulange/Documents/Recherche/ModHelX_Gemoc/TESL_Tests/automate.tesl"
$end
$scope module top $end
$var event 1 eventA eventA $end
$var event 1 eventB eventB $end
$var event 1 eventC eventC $end
$var event 1 allEvents allEvents $end
$var event 1 start start $end
$var event 1 enter1 enter1 $end
$var event 1 enter2 enter2 $end
$var event 1 enter3 enter3 $end
$var event 1 in1 in1 $end
$var event 1 in2 in2 $end
$var event 1 in3 in3 $end
$var event 1 leave1 leave1 $end
$var event 1 leave2 leave2 $end
$var event 1 leave3 leave3 $end
$var event 1 eventTimeout2to3 eventTimeout2to3 $end
$var event 1 end end $end
$upscope $end
$enddefinitions $end
$dumpvars
$end
#4000000
1in1
1eventA
1allEvents
1leave1
1enter2
#5000000
1in2
1allEvents
1leave2
1enter1
1eventB
#6000000
1eventTimeout2to3
1in1
1allEvents
#11000000
1in1
1allEvents
1eventB
#20000000
1in1
1eventA
1allEvents
1leave1
1enter2
#22000000
1in2
1eventTimeout2to3
1allEvents
1leave2
1enter3
#23000000
1in3
1allEvents
1eventB
#25000000
1leave3
1in3
1allEvents
1eventC
1enter1
#30000000
1end
