TESL_Tests/easter_with_next.vcd
$date
Fri May 27 11:24:08 CEST 2016
$end
$version
Generated by TESL lang 1.1.8 using TESL engine 1.0.11
$end
$timescale 1 us $end
$comment
Generated from file "/Users/boulange/Documents/Recherche/ModHelX_Gemoc/TESL_Tests/easter_with_next.tesl"
$end
$scope module top $end
$var event 1 Day Day $end
$var event 1 Sunday Sunday $end
$var event 1 ExactNewMoonMinus1Day ExactNewMoonMinus1Day $end
$var event 1 NewMoonDay NewMoonDay $end
$var event 1 FullMoonDay FullMoonDay $end
$var event 1 Equinox Equinox $end
$var event 1 EasterMoonDay EasterMoonDay $end
$var event 1 Easter Easter $end
$var event 1 MonthApr MonthApr $end
$upscope $end
$enddefinitions $end
$dumpvars
$end
#100000000
1MonthApr
1Day
#101000000
1MonthApr
1Day
#102000000
1MonthApr
1Day
#103000000
1MonthApr
1Sunday
1Day
#104000000
1EasterMoonDay
1MonthApr
1FullMoonDay
1Day
#105000000
1MonthApr
1Day
#106000000
1MonthApr
1Day
#107000000
1MonthApr
1Day
#108000000
1MonthApr
1Day
#109000000
1MonthApr
1Day
#110000000
1Easter
1MonthApr
1Sunday
1Day
#111000000
1MonthApr
1Day
#112000000
1MonthApr
1Day
#113000000
1MonthApr
1Day
#114000000
1MonthApr
1Day
#115000000
1MonthApr
1Day
#116000000
1MonthApr
1Day
#117000000
1MonthApr
1Sunday
1Day
#118000000
1MonthApr
1Day
#118542360
1ExactNewMoonMinus1Day
#119000000
1MonthApr
1Day
1NewMoonDay
#120000000
1MonthApr
1Day
#121000000
1Day
#122000000
1Day
#123000000
1Day
#124000000
1Sunday
1Day
#125000000
1Day
#126000000
1Day
#127000000
1Day
#128000000
1Day
#129000000
1Day
#130000000
1Day
#131000000
1Sunday
1Day
#132000000
1Day
#133000000
1FullMoonDay
1Day
#134000000
1Day
#135000000
1Day
#136000000
1Day
#137000000
1Day
#138000000
1Sunday
1Day
#139000000
1Day
#140000000
1Day
#141000000
1Day
#142000000
1Day
#143000000
1Day
#144000000
1Day
#145000000
1Sunday
1Day
#146000000
1Day
#147000000
1Day
#148000000
1Day
#148072950
1ExactNewMoonMinus1Day
#149000000
1Day
1NewMoonDay
#150000000
1Day
#151000000
1Day
#152000000
1Sunday
1Day
#153000000
1Day
#154000000
1Day
#155000000
1Day
#156000000
1Day
#157000000
1Day
#158000000
1Day
#159000000
1Sunday
1Day
#160000000
1Day
#161000000
1Day
#162000000
1Day
#163000000
1FullMoonDay
1Day
#164000000
1Day
#165000000
1Day
#166000000
1Sunday
1Day
#167000000
1Day
#168000000
1Day
#169000000
1Day
#170000000
1Day
#171000000
1Day
#172000000
1Day
#173000000
1Sunday
1Day
#174000000
1Day
#175000000
1Day
#176000000
1Day
#177000000
1Day
#177603540
1ExactNewMoonMinus1Day
#178000000
1Day
1NewMoonDay
#179000000
1Day
#180000000
1Sunday
1Day
#181000000
1Day
#182000000
1Day
#183000000
1Day
#184000000
1Day
#185000000
1Day
#186000000
1Day
#187000000
1Sunday
1Day
#188000000
1Day
#189000000
1Day
#190000000
1Day
#191000000
1Day
#192000000
1FullMoonDay
1Day
#193000000
1Day
#194000000
1Sunday
1Day
#195000000
1Day
#196000000
1Day
#197000000
1Day
#198000000
1Day
#199000000
1Day
#200000000
1Day
#201000000
1Sunday
1Day
#202000000
1Day
#203000000
1Day
#204000000
1Day
#205000000
1Day
#206000000
1Day
#207000000
1Day
#207134130
1ExactNewMoonMinus1Day
#208000000
1Sunday
1Day
1NewMoonDay
#209000000
1Day
#210000000
1Day
#211000000
1Day
#212000000
1Day
#213000000
1Day
#214000000
1Day
#215000000
1Sunday
1Day
#216000000
1Day
#217000000
1Day
#218000000
1Day
#219000000
1Day
#220000000
1Day
#221000000
1Day
#222000000
1Sunday
1FullMoonDay
1Day
#223000000
1Day
#224000000
1Day
#225000000
1Day
#226000000
1Day
#227000000
1Day
#228000000
1Day
#229000000
1Sunday
1Day
#230000000
1Day
#231000000
1Day
#232000000
1Day
#233000000
1Day
#234000000
1Day
#235000000
1Day
#236000000
1Sunday
1Day
#236664720
1ExactNewMoonMinus1Day
#237000000
1Day
1NewMoonDay
#238000000
1Day
#239000000
1Day
#240000000
1Day
#241000000
1Day
#242000000
1Day
#243000000
1Sunday
1Day
#244000000
1Day
#245000000
1Day
#246000000
1Day
#247000000
1Day
#248000000
1Day
#249000000
1Day
#250000000
1Sunday
1Day
#251000000
1FullMoonDay
1Day
#252000000
1Day
#253000000
1Day
#254000000
1Day
#255000000
1Day
#256000000
1Day
#257000000
1Sunday
1Day
#258000000
1Day
#259000000
1Day
#260000000
1Day
#261000000
1Day
#262000000
1Day
#263000000
1Day
#264000000
1Sunday
1Day
#265000000
1Day
#266000000
1Day
#266195310
1ExactNewMoonMinus1Day
#267000000
1Day
1NewMoonDay
#268000000
1Day
#269000000
1Day
#270000000
1Day
#271000000
1Sunday
1Day
#272000000
1Day
#273000000
1Day
#274000000
1Day
#275000000
1Day
#276000000
1Day
#277000000
1Day
#278000000
1Sunday
1Day
#279000000
1Day
#280000000
1Day
#281000000
1FullMoonDay
1Day
#282000000
1Day
#283000000
1Day
#284000000
1Day
#285000000
1Sunday
1Day
#286000000
1Day
#287000000
1Day
#288000000
1Day
#289000000
1Day
#290000000
1Day
#291000000
1Day
#292000000
1Sunday
1Day
#293000000
1Day
#294000000
1Day
#295000000
1Day
#295725900
1ExactNewMoonMinus1Day
#296000000
1Day
1NewMoonDay
#297000000
1Day
#298000000
1Day
#299000000
1Sunday
1Day
#300000000
1Day
#301000000
1Day
#302000000
1Day
#303000000
1Day
#304000000
1Day
#305000000
1Day
#306000000
1Sunday
1Day
#307000000
1Day
#308000000
1Day
#309000000
1Day
#310000000
1FullMoonDay
1Day
#311000000
1Day
#312000000
1Day
#313000000
1Sunday
1Day
#314000000
1Day
#315000000
1Day
#316000000
1Day
#317000000
1Day
#318000000
1Day
#319000000
1Day
#320000000
1Sunday
1Day
#321000000
1Day
#322000000
1Day
#323000000
1Day
#324000000
1Day
#325000000
1Day
#325256490
1ExactNewMoonMinus1Day
#326000000
1Day
1NewMoonDay
#327000000
1Sunday
1Day
#328000000
1Day
#329000000
1Day
#330000000
1Day
#331000000
1Day
#332000000
1Day
#333000000
1Day
#334000000
1Sunday
1Day
#335000000
1Day
#336000000
1Day
#337000000
1Day
#338000000
1Day
#339000000
1Day
#340000000
1FullMoonDay
1Day
#341000000
1Sunday
1Day
#342000000
1Day
#343000000
1Day
#344000000
1Day
#345000000
1Day
#346000000
1Day
#347000000
1Day
#348000000
1Sunday
1Day
#349000000
1Day
#350000000
1Day
#351000000
1Day
#352000000
1Day
#353000000
1Day
#354000000
1Day
#354787080
1ExactNewMoonMinus1Day
#355000000
1Sunday
1Day
1NewMoonDay
#356000000
1Day
#357000000
1Day
#358000000
1Day
#359000000
1Day
#360000000
1Day
#361000000
1Day
#362000000
1Sunday
1Day
#363000000
1Day
#364000000
1Day
#365000000
1Day
#366000000
1Day
#367000000
1Day
#368000000
1Day
#369000000
1Sunday
1FullMoonDay
1Day
#370000000
1Day
#371000000
1Day
#372000000
1Day
#373000000
1Day
#374000000
1Day
#375000000
1Day
#376000000
1Sunday
1Day
#377000000
1Day
#378000000
1Day
#379000000
1Day
#380000000
1Day
#381000000
1Day
#382000000
1Day
#383000000
1Sunday
1Day
#384000000
1Day
#384317670
1ExactNewMoonMinus1Day
#385000000
1Day
1NewMoonDay
#386000000
1Day
#387000000
1Day
#388000000
1Day
#389000000
1Day
#390000000
1Sunday
1Day
#391000000
1Day
#392000000
1Day
#393000000
1Day
#394000000
1Day
#395000000
1Day
#396000000
1Day
#397000000
1Sunday
1Day
#398000000
1Day
#399000000
1FullMoonDay
1Day
#400000000
1Day
#401000000
1Day
#402000000
1Day
#403000000
1Day
#404000000
1Sunday
1Day
#405000000
1Day
#406000000
1Day
#407000000
1Day
#408000000
1Day
#409000000
1Day
#410000000
1Day
#411000000
1Sunday
1Day
#412000000
1Day
#413000000
1Day
#413848260
1ExactNewMoonMinus1Day
#414000000
1Day
1NewMoonDay
#415000000
1Day
#416000000
1Day
#417000000
1Day
#418000000
1Sunday
1Day
#419000000
1Day
#420000000
1Day
#421000000
1Day
#422000000
1Day
#423000000
1Day
#424000000
1Day
#425000000
1Sunday
1Day
#426000000
1Day
#427000000
1Day
#428000000
1FullMoonDay
1Day
#429000000
1Day
#430000000
1Day
#431000000
1Day
#432000000
1Sunday
1Day
#433000000
1Day
#434000000
1Day
#435000000
1Day
#436000000
1Day
#437000000
1Day
#438000000
1Day
#439000000
1Sunday
1Day
#440000000
1Day
#441000000
1Day
#442000000
1Day
#443000000
1Day
#443378850
1ExactNewMoonMinus1Day
#444000000
1Day
1NewMoonDay
#445000000
1Day
#446000000
1Equinox
1Sunday
1Day
#447000000
1Day
#448000000
1Day
#449000000
1Day
#450000000
1Day
#451000000
1Day
#452000000
1Day
#453000000
1Sunday
1Day
#454000000
1Day
#455000000
1Day
#456000000
1MonthApr
1Day
#457000000
1MonthApr
1Day
#458000000
1EasterMoonDay
1MonthApr
1FullMoonDay
1Day
#459000000
1MonthApr
1Day
#460000000
1Easter
1MonthApr
1Sunday
1Day
#461000000
1MonthApr
1Day
#462000000
1MonthApr
1Day
#463000000
1MonthApr
1Day
#464000000
1MonthApr
1Day
#465000000
1MonthApr
1Day
