TESL_Tests/easter.vcd
$date
Thu Jun 26 15:22:43 CEST 2014
$end
$version
Generated by TESL lang 1.1.5 using TESL engine 1.0.9
$end
$timescale 1 us $end
$comment
Generated from file "/Users/boulange/Documents/Recherche/ModHelX_Gemoc/TESL_Tests/easter.tesl"
$end
$scope module top $end
$var event 1 Day Day $end
$var event 1 Sunday Sunday $end
$var event 1 ExactNewMoonMinus1Day ExactNewMoonMinus1Day $end
$var event 1 NewMoonDay NewMoonDay $end
$var event 1 FullMoonDay FullMoonDay $end
$var event 1 Equinox Equinox $end
$var event 1 Easter Easter $end
$var event 1 EasterMoonDay EasterMoonDay $end
$var event 1 Stop Stop $end
$var event 1 MonthJan MonthJan $end
$var event 1 MonthFeb MonthFeb $end
$var event 1 MonthMar MonthMar $end
$var event 1 MonthApr MonthApr $end
$var event 1 MonthMay MonthMay $end
$upscope $end
$enddefinitions $end
$dumpvars
$end
#420000
1ExactNewMoonMinus1Day
#1000000
1NewMoonDay
1MonthJan
1Day
#2000000
1MonthJan
1Day
#3000000
1MonthJan
1Day
#4000000
1MonthJan
1Day
#5000000
1MonthJan
1Day
1Sunday
#6000000
1MonthJan
1Day
#7000000
1MonthJan
1Day
#8000000
1MonthJan
1Day
#9000000
1MonthJan
1Day
#10000000
1MonthJan
1Day
#11000000
1MonthJan
1Day
#12000000
1MonthJan
1Day
1Sunday
#13000000
1MonthJan
1Day
#14000000
1MonthJan
1Day
#15000000
1MonthJan
1FullMoonDay
1Day
#16000000
1MonthJan
1Day
#17000000
1MonthJan
1Day
#18000000
1MonthJan
1Day
#19000000
1MonthJan
1Day
1Sunday
#20000000
1MonthJan
1Day
#21000000
1MonthJan
1Day
#22000000
1MonthJan
1Day
#23000000
1MonthJan
1Day
#24000000
1MonthJan
1Day
#25000000
1MonthJan
1Day
#26000000
1MonthJan
1Day
1Sunday
#27000000
1MonthJan
1Day
#28000000
1MonthJan
1Day
#29000000
1MonthJan
1Day
#29950590
1ExactNewMoonMinus1Day
#30000000
1NewMoonDay
1MonthJan
1Day
#31000000
1MonthJan
1Day
#32000000
1MonthFeb
1Day
#33000000
1MonthFeb
1Day
1Sunday
#34000000
1MonthFeb
1Day
#35000000
1MonthFeb
1Day
#36000000
1MonthFeb
1Day
#37000000
1MonthFeb
1Day
#38000000
1MonthFeb
1Day
#39000000
1MonthFeb
1Day
#40000000
1MonthFeb
1Day
1Sunday
#41000000
1MonthFeb
1Day
#42000000
1MonthFeb
1Day
#43000000
1MonthFeb
1Day
#44000000
1MonthFeb
1FullMoonDay
1Day
#45000000
1MonthFeb
1Day
#46000000
1MonthFeb
1Day
#47000000
1MonthFeb
1Day
1Sunday
#48000000
1MonthFeb
1Day
#49000000
1MonthFeb
1Day
#50000000
1MonthFeb
1Day
#51000000
1MonthFeb
1Day
#52000000
1MonthFeb
1Day
#53000000
1MonthFeb
1Day
#54000000
1MonthFeb
1Day
1Sunday
#55000000
1MonthFeb
1Day
#56000000
1MonthFeb
1Day
#57000000
1MonthFeb
1Day
#58000000
1MonthFeb
1Day
#59000000
1MonthFeb
1Day
#59481180
1ExactNewMoonMinus1Day
#60000000
1NewMoonDay
1MonthMar
1Day
#61000000
1MonthMar
1Day
1Sunday
#62000000
1MonthMar
1Day
#63000000
1MonthMar
1Day
#64000000
1MonthMar
1Day
#65000000
1MonthMar
1Day
#66000000
1MonthMar
1Day
#67000000
1MonthMar
1Day
#68000000
1MonthMar
1Day
1Sunday
#69000000
1MonthMar
1Day
#70000000
1MonthMar
1Day
#71000000
1MonthMar
1Day
#72000000
1MonthMar
1Day
#73000000
1MonthMar
1Day
#74000000
1MonthMar
1FullMoonDay
1Day
#75000000
1MonthMar
1Day
1Sunday
#76000000
1MonthMar
1Day
#77000000
1MonthMar
1Day
#78000000
1MonthMar
1Day
#79000000
1MonthMar
1Day
#80000000
1MonthMar
1Day
#81000000
1MonthMar
1Day
1Equinox
#82000000
1MonthMar
1Day
1Sunday
#83000000
1MonthMar
1Day
#84000000
1MonthMar
1Day
#85000000
1MonthMar
1Day
#86000000
1MonthMar
1Day
#87000000
1MonthMar
1Day
#88000000
1MonthMar
1Day
#89000000
1MonthMar
1Day
1Sunday
#89011770
1ExactNewMoonMinus1Day
#90000000
1NewMoonDay
1MonthMar
1Day
#91000000
1MonthApr
1Day
#92000000
1MonthApr
1Day
#93000000
1MonthApr
1Day
#94000000
1MonthApr
1Day
#95000000
1MonthApr
1Day
#96000000
1MonthApr
1Day
1Sunday
#97000000
1MonthApr
1Day
#98000000
1MonthApr
1Day
#99000000
1MonthApr
1Day
#100000000
1MonthApr
1Day
#101000000
1MonthApr
1Day
#102000000
1MonthApr
1Day
#103000000
1MonthApr
1Day
1Sunday
#104000000
1EasterMoonDay
1MonthApr
1FullMoonDay
1Day
#105000000
1MonthApr
1Day
#106000000
1MonthApr
1Day
#107000000
1MonthApr
1Day
#108000000
1MonthApr
1Day
#109000000
1MonthApr
1Day
#110000000
1MonthApr
1Easter
1Day
1Sunday
#111000000
1MonthApr
1Day
#112000000
1MonthApr
1Day
#113000000
1MonthApr
1Day
#114000000
1MonthApr
1Day
#115000000
1MonthApr
1Day
#116000000
1MonthApr
1Day
#117000000
1MonthApr
1Day
1Sunday
#118000000
1MonthApr
1Day
#118542360
1ExactNewMoonMinus1Day
#119000000
1NewMoonDay
1MonthApr
1Day
#120000000
1MonthApr
1Day
#121000000
1Day
1MonthMay
#122000000
1Day
1MonthMay
#123000000
1Day
1MonthMay
#124000000
1Day
1MonthMay
1Sunday
#125000000
1Day
1MonthMay
#126000000
1Day
1MonthMay
#127000000
1Day
1MonthMay
#128000000
1Day
1MonthMay
#129000000
1Day
1MonthMay
#130000000
1Day
1MonthMay
#131000000
1Day
1MonthMay
1Sunday
#132000000
1Day
1MonthMay
#133000000
1FullMoonDay
1Day
1MonthMay
#134000000
1Day
1MonthMay
#135000000
1Day
1MonthMay
#136000000
1Day
1MonthMay
#137000000
1Day
1MonthMay
#138000000
1Day
1MonthMay
1Sunday
#139000000
1Day
1MonthMay
#140000000
1Day
1MonthMay
#141000000
1Day
1MonthMay
#142000000
1Day
1MonthMay
#143000000
1Day
1MonthMay
#144000000
1Day
1MonthMay
#145000000
1Day
1MonthMay
1Sunday
#146000000
1Day
1MonthMay
#147000000
1Day
1MonthMay
#148000000
1Day
1MonthMay
#148072950
1ExactNewMoonMinus1Day
#149000000
1NewMoonDay
1Day
1MonthMay
#150000000
1Day
1MonthMay
#151000000
1Day
1MonthMay
#152000000
1Day
1Sunday
#153000000
1Day
#154000000
1Day
#155000000
1Day
#156000000
1Day
#157000000
1Day
#158000000
1Day
#159000000
1Day
1Sunday
#160000000
1Day
#161000000
1Day
#162000000
1Day
#163000000
1FullMoonDay
1Day
#164000000
1Day
#165000000
1Day
#166000000
1Day
1Sunday
#167000000
1Day
#168000000
1Day
#169000000
1Day
#170000000
1Day
#171000000
1Day
#172000000
1Day
#173000000
1Day
1Sunday
#174000000
1Day
#175000000
1Day
#176000000
1Day
#177000000
1Day
#177603540
1ExactNewMoonMinus1Day
#178000000
1NewMoonDay
1Day
#179000000
1Day
#180000000
1Day
1Sunday
#181000000
1Day
#182000000
1Day
#183000000
1Day
#184000000
1Day
#185000000
1Day
#186000000
1Day
#187000000
1Day
1Sunday
#188000000
1Day
#189000000
1Day
#190000000
1Day
#191000000
1Day
#192000000
1FullMoonDay
1Day
#193000000
1Day
#194000000
1Day
1Sunday
#195000000
1Day
#196000000
1Day
#197000000
1Day
#198000000
1Day
#199000000
1Day
#200000000
1Day
#201000000
1Day
1Sunday
#202000000
1Day
#203000000
1Day
#204000000
1Day
#205000000
1Day
#206000000
1Day
#207000000
1Day
#207134130
1ExactNewMoonMinus1Day
#208000000
1NewMoonDay
1Day
1Sunday
#209000000
1Day
#210000000
1Day
#211000000
1Day
#212000000
1Day
#213000000
1Day
#214000000
1Day
#215000000
1Day
1Sunday
#216000000
1Day
#217000000
1Day
#218000000
1Day
#219000000
1Day
#220000000
1Day
#221000000
1Day
#222000000
1FullMoonDay
1Day
1Sunday
#223000000
1Day
#224000000
1Day
#225000000
1Day
#226000000
1Day
#227000000
1Day
#228000000
1Day
#229000000
1Day
1Sunday
#230000000
1Day
#231000000
1Day
#232000000
1Day
#233000000
1Day
#234000000
1Day
#235000000
1Day
#236000000
1Day
1Sunday
#236664720
1ExactNewMoonMinus1Day
#237000000
1NewMoonDay
1Day
#238000000
1Day
#239000000
1Day
#240000000
1Day
#241000000
1Day
#242000000
1Day
#243000000
1Day
1Sunday
#244000000
1Day
#245000000
1Day
#246000000
1Day
#247000000
1Day
#248000000
1Day
#249000000
1Day
#250000000
1Day
1Sunday
#251000000
1FullMoonDay
1Day
#252000000
1Day
#253000000
1Day
#254000000
1Day
#255000000
1Day
#256000000
1Day
#257000000
1Day
1Sunday
#258000000
1Day
#259000000
1Day
#260000000
1Day
#261000000
1Day
#262000000
1Day
#263000000
1Day
#264000000
1Day
1Sunday
#265000000
1Day
#266000000
1Day
#266195310
1ExactNewMoonMinus1Day
#267000000
1NewMoonDay
1Day
#268000000
1Day
#269000000
1Day
#270000000
1Day
#271000000
1Day
1Sunday
#272000000
1Day
#273000000
1Day
#274000000
1Day
#275000000
1Day
#276000000
1Day
#277000000
1Day
#278000000
1Day
1Sunday
#279000000
1Day
#280000000
1Day
#281000000
1FullMoonDay
1Day
#282000000
1Day
#283000000
1Day
#284000000
1Day
#285000000
1Day
1Sunday
#286000000
1Day
#287000000
1Day
#288000000
1Day
#289000000
1Day
#290000000
1Day
#291000000
1Day
#292000000
1Day
1Sunday
#293000000
1Day
#294000000
1Day
#295000000
1Day
#295725900
1ExactNewMoonMinus1Day
#296000000
1NewMoonDay
1Day
#297000000
1Day
#298000000
1Day
#299000000
1Day
1Sunday
#300000000
1Day
#301000000
1Day
#302000000
1Day
#303000000
1Day
#304000000
1Day
#305000000
1Day
#306000000
1Day
1Sunday
#307000000
1Day
#308000000
1Day
#309000000
1Day
#310000000
1FullMoonDay
1Day
#311000000
1Day
#312000000
1Day
#313000000
1Day
1Sunday
#314000000
1Day
#315000000
1Day
#316000000
1Day
#317000000
1Day
#318000000
1Day
#319000000
1Day
#320000000
1Day
1Sunday
#321000000
1Day
#322000000
1Day
#323000000
1Day
#324000000
1Day
#325000000
1Day
#325256490
1ExactNewMoonMinus1Day
#326000000
1NewMoonDay
1Day
#327000000
1Day
1Sunday
#328000000
1Day
#329000000
1Day
#330000000
1Day
#331000000
1Day
#332000000
1Day
#333000000
1Day
#334000000
1Day
1Sunday
#335000000
1Day
#336000000
1Day
#337000000
1Day
#338000000
1Day
#339000000
1Day
#340000000
1FullMoonDay
1Day
#341000000
1Day
1Sunday
#342000000
1Day
#343000000
1Day
#344000000
1Day
#345000000
1Day
#346000000
1Day
#347000000
1Day
#348000000
1Day
1Sunday
#349000000
1Day
#350000000
1Day
#351000000
1Day
#352000000
1Day
#353000000
1Day
#354000000
1Day
#354787080
1ExactNewMoonMinus1Day
#355000000
1NewMoonDay
1Day
1Sunday
#356000000
1Day
#357000000
1Day
#358000000
1Day
#359000000
1Day
#360000000
1Day
#361000000
1Day
#362000000
1Day
1Sunday
#363000000
1Day
#364000000
1Day
#365000000
1Day
#366000000
1MonthJan
1Day
#367000000
1MonthJan
1Day
#368000000
1MonthJan
1Day
#369000000
1MonthJan
1FullMoonDay
1Day
1Sunday
#370000000
1MonthJan
1Day
#371000000
1MonthJan
1Day
#372000000
1MonthJan
1Day
#373000000
1MonthJan
1Day
#374000000
1MonthJan
1Day
#375000000
1MonthJan
1Day
#376000000
1MonthJan
1Day
1Sunday
#377000000
1MonthJan
1Day
#378000000
1MonthJan
1Day
#379000000
1MonthJan
1Day
#380000000
1MonthJan
1Day
#381000000
1MonthJan
1Day
#382000000
1MonthJan
1Day
#383000000
1MonthJan
1Day
1Sunday
#384000000
1MonthJan
1Day
#384317670
1ExactNewMoonMinus1Day
#385000000
1NewMoonDay
1MonthJan
1Day
#386000000
1MonthJan
1Day
#387000000
1MonthJan
1Day
#388000000
1MonthJan
1Day
#389000000
1MonthJan
1Day
#390000000
1MonthJan
1Day
1Sunday
#391000000
1MonthJan
1Day
#392000000
1MonthJan
1Day
#393000000
1MonthJan
1Day
#394000000
1MonthJan
1Day
#395000000
1MonthJan
1Day
#396000000
1MonthJan
1Day
#397000000
1MonthFeb
1Day
1Sunday
#398000000
1MonthFeb
1Day
#399000000
1MonthFeb
1FullMoonDay
1Day
#400000000
1MonthFeb
1Day
#401000000
1MonthFeb
1Day
#402000000
1MonthFeb
1Day
#403000000
1MonthFeb
1Day
#404000000
1MonthFeb
1Day
1Sunday
#405000000
1MonthFeb
1Day
#406000000
1MonthFeb
1Day
#407000000
1MonthFeb
1Day
#408000000
1MonthFeb
1Day
#409000000
1MonthFeb
1Day
#410000000
1MonthFeb
1Day
#411000000
1MonthFeb
1Day
1Sunday
#412000000
1MonthFeb
1Day
#413000000
1MonthFeb
1Day
#413848260
1ExactNewMoonMinus1Day
#414000000
1NewMoonDay
1MonthFeb
1Day
#415000000
1MonthFeb
1Day
#416000000
1MonthFeb
1Day
#417000000
1MonthFeb
1Day
#418000000
1MonthFeb
1Day
1Sunday
#419000000
1MonthFeb
1Day
#420000000
1MonthFeb
1Day
#421000000
1MonthFeb
1Day
#422000000
1MonthFeb
1Day
#423000000
1MonthFeb
1Day
#424000000
1MonthFeb
1Day
#425000000
1MonthMar
1Day
1Sunday
#426000000
1MonthMar
1Day
#427000000
1MonthMar
1Day
#428000000
1MonthMar
1FullMoonDay
1Day
#429000000
1MonthMar
1Day
#430000000
1MonthMar
1Day
#431000000
1MonthMar
1Day
#432000000
1MonthMar
1Day
1Sunday
#433000000
1MonthMar
1Day
#434000000
1MonthMar
1Day
#435000000
1MonthMar
1Day
#436000000
1MonthMar
1Day
#437000000
1MonthMar
1Day
#438000000
1MonthMar
1Day
#439000000
1MonthMar
1Day
1Sunday
#440000000
1MonthMar
1Day
#441000000
1MonthMar
1Day
#442000000
1MonthMar
1Day
#443000000
1MonthMar
1Day
#443378850
1ExactNewMoonMinus1Day
#444000000
1NewMoonDay
1MonthMar
1Day
#445000000
1MonthMar
1Day
#446000000
1MonthMar
1Day
1Equinox
1Sunday
#447000000
1MonthMar
1Day
#448000000
1MonthMar
1Day
#449000000
1MonthMar
1Day
#450000000
1MonthMar
1Day
#451000000
1MonthMar
1Day
#452000000
1MonthMar
1Day
#453000000
1MonthMar
1Day
1Sunday
#454000000
1MonthMar
1Day
#455000000
1MonthMar
1Day
#456000000
1MonthApr
1Day
#457000000
1MonthApr
1Day
#458000000
1EasterMoonDay
1MonthApr
1FullMoonDay
1Day
#459000000
1MonthApr
1Day
#460000000
1MonthApr
1Easter
1Day
1Sunday
#461000000
1MonthApr
1Day
#462000000
1MonthApr
1Day
#463000000
1MonthApr
1Day
#464000000
1MonthApr
1Day
#465000000
1MonthApr
1Day
#466000000
1MonthApr
1Day
#467000000
1MonthApr
1Day
1Sunday
#468000000
1MonthApr
1Day
#469000000
1MonthApr
1Day
#470000000
1MonthApr
1Day
#471000000
1MonthApr
1Day
#472000000
1MonthApr
1Day
#472909440
1ExactNewMoonMinus1Day
#473000000
1NewMoonDay
1MonthApr
1Day
#474000000
1MonthApr
1Day
1Sunday
#475000000
1MonthApr
1Day
#476000000
1MonthApr
1Day
#477000000
1MonthApr
1Day
#478000000
1MonthApr
1Day
#479000000
1MonthApr
1Day
#480000000
1MonthApr
1Day
#481000000
1MonthApr
1Day
1Sunday
#482000000
1MonthApr
1Day
#483000000
1MonthApr
1Day
#484000000
1MonthApr
1Day
#485000000
1MonthApr
1Day
#486000000
1Day
1MonthMay
#487000000
1FullMoonDay
1Day
1MonthMay
#488000000
1Day
1MonthMay
1Sunday
#489000000
1Day
1MonthMay
#490000000
1Day
1MonthMay
#491000000
1Day
1MonthMay
#492000000
1Day
1MonthMay
#493000000
1Day
1MonthMay
#494000000
1Day
1MonthMay
#495000000
1Day
1MonthMay
1Sunday
#496000000
1Day
1MonthMay
#497000000
1Day
1MonthMay
#498000000
1Day
1MonthMay
#499000000
1Day
1MonthMay
#500000000
1Day
1MonthMay
#501000000
1Day
1MonthMay
1Stop
