TESL_Tests/engine.vcd
$date
Fri May 27 11:26:20 CEST 2016
$end
$version
Generated by TESL lang 1.1.8 using TESL engine 1.0.11
$end
$timescale 1 us $end
$comment
Generated from file "/Users/boulange/Documents/Recherche/ModHelX_Gemoc/TESL_Tests/engine.tesl"
$end
$scope module top $end
$var event 1 crankshaft crankshaft $end
$var event 1 top_dead_center top_dead_center $end
$var event 1 camshaft camshaft $end
$var event 1 exhaust_tdc exhaust_tdc $end
$var event 1 compress_tdc compress_tdc $end
$var event 1 ignition ignition $end
$upscope $end
$enddefinitions $end
$dumpvars
$end
#0
1exhaust_tdc
1top_dead_center
#132000000
1ignition
#180000000
1compress_tdc
1top_dead_center
#360000000
1exhaust_tdc
1top_dead_center
#492000000
1ignition
#540000000
1compress_tdc
1top_dead_center
#720000000
1exhaust_tdc
1top_dead_center
#852000000
1ignition
