TESL_Tests/example_delayed.vcd
$date
Mon Jun 02 17:03:13 CEST 2014
$end
$version
Generated by TESL lang 1.1.3 using TESL engine 1.0.8
$end
$timescale 1 us $end
$comment
Generated from file "/Users/boulange/Documents/Recherche/ModHelX_Gemoc/TESL_Tests/example_delayed.tesl"
$end
$scope module top $end
$var event 1 master master $end
$var event 1 counting counting $end
$var event 1 slave slave $end
$upscope $end
$enddefinitions $end
$dumpvars
$end
#500000
1master
#1000000
1counting
#2000000
1counting
#2500000
1master
#3000000
1slave
1counting
#4000000
1counting
#4500000
1master
#5000000
1slave
1counting
#6000000
1counting
#6500000
1master
