TESL_Tests/examplewhen.vcd
$date
Mon Jun 02 21:50:53 CEST 2014
$end
$version
Generated by TESL lang 1.1.3 using TESL engine 1.0.8
$end
$timescale 1 us $end
$comment
Generated from file "/Users/boulange/Documents/Recherche/ModHelX_Gemoc/TESL_Tests/examplewhen.tesl"
$end
$scope module top $end
$var event 1 master master $end
$var event 1 sampling sampling $end
$var event 1 slave slave $end
$upscope $end
$enddefinitions $end
$dumpvars
$end
#1000000
1master
#2000000
1sampling
#3000000
1master
#4000000
1slave
1sampling
1master
#5000000
1master
#6000000
1sampling
#7000000
1slave
1sampling
1master
#8000000
1master
