TESL_Tests/example_delayed_imm.vcd
$date
Mon Jun 02 21:34:34 CEST 2014
$end
$version
Generated by TESL lang 1.1.3 using TESL engine 1.0.8
$end
$timescale 1 us $end
$comment
Generated from file "/Users/boulange/Documents/Recherche/ModHelX_Gemoc/TESL_Tests/example_delayed_imm.tesl"
$end
$scope module top $end
$var event 1 master master $end
$var event 1 counting counting $end
$var event 1 slave1 slave1 $end
$var event 1 slave2 slave2 $end
$upscope $end
$enddefinitions $end
$dumpvars
$end
#1000000
1counting
1master
#2000000
1counting
#3000000
1counting
1slave2
1master
#4000000
1counting
1slave1
#5000000
1counting
1slave2
1master
#6000000
1counting
1slave1
#7000000
1counting
1slave2
1master
#8000000
1counting
1slave1
#9000000
1counting
1slave2
1master
#10000000
1counting
1slave1
