TESL_Tests/example_filtered.vcd
$date
Mon Jun 02 16:44:30 CEST 2014
$end
$version
Generated by TESL lang 1.1.3 using TESL engine 1.0.8
$end
$timescale 1 us $end
$comment
Generated from file "/Users/boulange/Documents/Recherche/ModHelX_Gemoc/TESL_Tests/example_filtered.tesl"
$end
$scope module top $end
$var event 1 master master $end
$var event 1 slave slave $end
$upscope $end
$enddefinitions $end
$dumpvars
$end
#1000000
1master
#2000000
1master
#3000000
1master
#4000000
1slave
1master
#5000000
1slave
1master
#6000000
1slave
1master
#7000000
1slave
1master
#8000000
1master
#9000000
1slave
1master
#10000000
1slave
1master
#11000000
1master
#12000000
1slave
1master
#13000000
1slave
1master
#14000000
1master
#15000000
1slave
1master
