TESL_Tests/example_sustain_variants.vcd
$date
Mon Jun 02 21:45:31 CEST 2014
$end
$version
Generated by TESL lang 1.1.3 using TESL engine 1.0.8
$end
$timescale 1 us $end
$comment
Generated from file "/Users/boulange/Documents/Recherche/ModHelX_Gemoc/TESL_Tests/example_sustain_variants.tesl"
$end
$scope module top $end
$var event 1 master master $end
$var event 1 begin begin $end
$var event 1 end end $end
$var event 1 slave slave $end
$var event 1 slave_imm slave_imm $end
$var event 1 slave_weak slave_weak $end
$var event 1 slave_imm_weak slave_imm_weak $end
$upscope $end
$enddefinitions $end
$dumpvars
$end
#1000000
1master
#2000000
1begin
#3000000
1slave
1slave_imm_weak
1slave_imm
1slave_weak
1master
#5000000
1slave
1slave_imm_weak
1slave_imm
1slave_weak
1master
#6000000
1end
#7000000
1master
#9000000
1slave_imm_weak
1slave_imm
1master
1begin
#11000000
1slave
1slave_imm_weak
1slave_imm
1slave_weak
1master
#13000000
1slave
1slave_imm
1master
1end
#15000000
1master
#17000000
1slave_imm
1master
1end
1begin
#19000000
1master
#21000000
1master
1end
#23000000
1master
#25000000
1slave_imm_weak
1slave_imm
1master
1begin
#27000000
1slave
1slave_imm_weak
1slave_imm
1slave_weak
1master
#29000000
1slave
1slave_imm
1master
1end
1begin
#31000000
1master
