TESL_Tests/float_clocks_tag_relations.vcd
$date
Thu May 15 10:48:15 CEST 2014
$end
$version
Generated by TESL lang 1.1.0 using TESL engine 1.0.7
$end
$timescale 1 us $end
$comment
Generated from file "/Users/boulange/Documents/Recherche/ModHelX_Gemoc/TESL_Tests/float_clocks_tag_relations.tesl"
$end
$scope module top $end
$var event 1 A A $end
$var event 1 B B $end
$upscope $end
$enddefinitions $end
$dumpvars
$end
#1500000
1A
1B
#3000000
1A
1B
#4500000
1A
1B
#6000000
1A
1B
#7500000
1A
1B
#9000000
1A
1B
#10500000
1A
1B
#12000000
1A
1B
#13500000
1A
1B
