TESL_Tests/implieswhen.vcd
$date
Thu May 15 10:48:46 CEST 2014
$end
$version
Generated by TESL lang 1.1.0 using TESL engine 1.0.7
$end
$timescale 1 us $end
$comment
Generated from file "/Users/boulange/Documents/Recherche/ModHelX_Gemoc/TESL_Tests/implieswhen.tesl"
$end
$scope module top $end
$var event 1 master master $end
$var event 1 sampling sampling $end
$var event 1 slave slave $end
$upscope $end
$enddefinitions $end
$dumpvars
$end
#2000000
1slave
1sampling
1master
#4000000
1master
#5000000
1sampling
#6000000
1master
#8000000
1slave
1sampling
1master
#10000000
1master
#11000000
1sampling
#12000000
1master
#14000000
1slave
1sampling
1master
#16000000
1master
#17000000
1sampling
#18000000
1master
#20000000
1slave
1sampling
1master
#22000000
1master
#23000000
1sampling
#24000000
1master
#26000000
1slave
1sampling
1master
#28000000
1master
#29000000
1sampling
