TESL_Tests/int_clocks_tag_relations.vcd
$date
Thu May 15 10:49:19 CEST 2014
$end
$version
Generated by TESL lang 1.1.0 using TESL engine 1.0.7
$end
$timescale 1 us $end
$comment
Generated from file "/Users/boulange/Documents/Recherche/ModHelX_Gemoc/TESL_Tests/int_clocks_tag_relations.tesl"
$end
$scope module top $end
$var event 1 A A $end
$var event 1 B B $end
$upscope $end
$enddefinitions $end
$dumpvars
$end
#12000000
1A
1B
#48000000
1A
1B
#84000000
1A
1B
#120000000
1A
1B
#156000000
1A
1B
#192000000
1A
1B
#228000000
1A
1B
#264000000
1A
1B
#300000000
1A
1B
#336000000
1A
1B
