TESL_Tests/paper_timedelayed.vcd
$date
Thu May 15 11:00:54 CEST 2014
$end
$version
Generated by TESL lang 1.1.0 using TESL engine 1.0.7
$end
$timescale 1 us $end
$comment
Generated from file "/Users/boulange/Documents/Recherche/ModHelX_Gemoc/TESL_Tests/paper_timedelayed.tesl"
$end
$scope module top $end
$var event 1 measuring measuring $end
$var event 1 master master $end
$var event 1 slave slave $end
$upscope $end
$enddefinitions $end
$dumpvars
$end
#2000000
1master
#3500000
1slave
#4000000
1master
#5500000
1slave
#8000000
1master
#9000000
1master
#9500000
1slave
#10500000
1slave
