TESL_Tests/periodic.vcd
$date
Thu May 15 11:02:44 CEST 2014
$end
$version
Generated by TESL lang 1.1.0 using TESL engine 1.0.7
$end
$timescale 1 us $end
$comment
Generated from file "/Users/boulange/Documents/Recherche/ModHelX_Gemoc/TESL_Tests/periodic.tesl"
$end
$scope module top $end
$var event 1 P P $end
$var event 1 Q Q $end
$var event 1 Stop Stop $end
$upscope $end
$enddefinitions $end
$dumpvars
$end
#1000000
1P
#2000000
1Q
#3000000
1P
#5000000
1Q
1P
#7000000
1P
#8000000
1Q
#9000000
1P
#11000000
1Q
1P
#13000000
1P
#14000000
1Q
#15000000
1P
#17000000
1Q
1P
#19000000
1P
#20000000
1Q
#21000000
1P
1Stop
