TESL_Tests/test2.vcd
$date
Thu May 15 11:04:37 CEST 2014
$end
$version
Generated by TESL lang 1.1.0 using TESL engine 1.0.7
$end
$timescale 1 us $end
$comment
Generated from file "/Users/boulange/Documents/Recherche/ModHelX_Gemoc/TESL_Tests/test2.tesl"
$end
$scope module top $end
$var event 1 Day Day $end
$var event 1 H60 H60 $end
$var event 1 H60Day H60Day $end
$upscope $end
$enddefinitions $end
$dumpvars
$end
#1000000
1Day
#2000000
1Day
#2500000
1H60
#3000000
1H60Day
1Day
#4000000
1Day
#5000000
1H60Day
1H60
1Day
#6000000
1Day
#7000000
1Day
#7500000
1H60
#8000000
1H60Day
1Day
#9000000
1Day
#10000000
1H60Day
1H60
1Day
#11000000
1Day
#12000000
1Day
#13000000
1Day
#14000000
1Day
