TESL_Tests/time_delayed.vcd
$date
Thu May 15 11:14:42 CEST 2014
$end
$version
Generated by TESL lang 1.1.0 using TESL engine 1.0.7
$end
$timescale 1 us $end
$comment
Generated from file "/Users/boulange/Documents/Recherche/ModHelX_Gemoc/TESL_Tests/time_delayed.tesl"
$end
$scope module top $end
$var event 1 source source $end
$var event 1 measure measure $end
$var event 1 slave slave $end
$upscope $end
$enddefinitions $end
$dumpvars
$end
#1520000
1slave
#2000000
1source
#3520000
1slave
#4000000
1source
#5520000
1slave
#8000000
1source
#9520000
1slave
#10000000
1source
#11520000
1slave
#13000000
1source
#14520000
1slave
#16000000
1source
#17000000
1source
#17520000
1slave
#18520000
1slave
